<?xml version="1.0" encoding="UTF-8"?>
<testsuite name="api.ReqresTest" tests="1" skipped="0" failures="0" errors="0" timestamp="2023-06-01T11:15:32" hostname="MYLEGIONCHIK" time="3.168">
  <properties/>
  <testcase name="checkAvatarAndIdTest()" classname="api.ReqresTest" time="3.168"/>
  <system-out><![CDATA[14:15:33.788 [Test worker] DEBUG org.apache.http.impl.conn.BasicClientConnectionManager - Get connection for route {s}->https://reqres.in:443
14:15:33.814 [Test worker] DEBUG org.apache.http.impl.conn.DefaultClientConnectionOperator - Connecting to reqres.in:443
14:15:33.973 [Test worker] DEBUG org.apache.http.client.protocol.RequestAddCookies - CookieSpec selected: ignoreCookies
14:15:33.974 [Test worker] DEBUG org.apache.http.client.protocol.RequestAuthCache - Auth cache not set in the context
14:15:33.974 [Test worker] DEBUG org.apache.http.client.protocol.RequestTargetAuthentication - Target auth state: UNCHALLENGED
14:15:33.974 [Test worker] DEBUG org.apache.http.client.protocol.RequestProxyAuthentication - Proxy auth state: UNCHALLENGED
14:15:33.975 [Test worker] DEBUG org.apache.http.impl.client.DefaultHttpClient - Attempt 1 to execute request
14:15:33.975 [Test worker] DEBUG org.apache.http.impl.conn.DefaultClientConnection - Sending request: GET /api/users?page=2 HTTP/1.1
14:15:33.975 [Test worker] DEBUG org.apache.http.wire -  >> "GET /api/users?page=2 HTTP/1.1[\r][\n]"
14:15:33.977 [Test worker] DEBUG org.apache.http.wire -  >> "Content-Type: application/json[\r][\n]"
14:15:33.977 [Test worker] DEBUG org.apache.http.wire -  >> "Accept: */*[\r][\n]"
14:15:33.977 [Test worker] DEBUG org.apache.http.wire -  >> "Host: reqres.in[\r][\n]"
14:15:33.977 [Test worker] DEBUG org.apache.http.wire -  >> "Connection: Keep-Alive[\r][\n]"
14:15:33.977 [Test worker] DEBUG org.apache.http.wire -  >> "User-Agent: Apache-HttpClient/4.5.14 (Java/19.0.2)[\r][\n]"
14:15:33.977 [Test worker] DEBUG org.apache.http.wire -  >> "Accept-Encoding: gzip,deflate[\r][\n]"
14:15:33.977 [Test worker] DEBUG org.apache.http.wire -  >> "[\r][\n]"
14:15:33.977 [Test worker] DEBUG org.apache.http.headers - >> GET /api/users?page=2 HTTP/1.1
14:15:33.977 [Test worker] DEBUG org.apache.http.headers - >> Content-Type: application/json
14:15:33.977 [Test worker] DEBUG org.apache.http.headers - >> Accept: */*
14:15:33.977 [Test worker] DEBUG org.apache.http.headers - >> Host: reqres.in
14:15:33.977 [Test worker] DEBUG org.apache.http.headers - >> Connection: Keep-Alive
14:15:33.977 [Test worker] DEBUG org.apache.http.headers - >> User-Agent: Apache-HttpClient/4.5.14 (Java/19.0.2)
14:15:33.977 [Test worker] DEBUG org.apache.http.headers - >> Accept-Encoding: gzip,deflate
14:15:34.023 [Test worker] DEBUG org.apache.http.wire -  << "HTTP/1.1 200 OK[\r][\n]"
14:15:34.025 [Test worker] DEBUG org.apache.http.wire -  << "Date: Thu, 01 Jun 2023 11:15:32 GMT[\r][\n]"
14:15:34.025 [Test worker] DEBUG org.apache.http.wire -  << "Content-Type: application/json; charset=utf-8[\r][\n]"
14:15:34.025 [Test worker] DEBUG org.apache.http.wire -  << "Transfer-Encoding: chunked[\r][\n]"
14:15:34.025 [Test worker] DEBUG org.apache.http.wire -  << "Connection: keep-alive[\r][\n]"
14:15:34.025 [Test worker] DEBUG org.apache.http.wire -  << "X-Powered-By: Express[\r][\n]"
14:15:34.025 [Test worker] DEBUG org.apache.http.wire -  << "Access-Control-Allow-Origin: *[\r][\n]"
14:15:34.025 [Test worker] DEBUG org.apache.http.wire -  << "Etag: W/"406-ut0vzoCuidvyMf8arZpMpJ6ZRDw"[\r][\n]"
14:15:34.025 [Test worker] DEBUG org.apache.http.wire -  << "Via: 1.1 vegur[\r][\n]"
14:15:34.025 [Test worker] DEBUG org.apache.http.wire -  << "Cache-Control: max-age=14400[\r][\n]"
14:15:34.025 [Test worker] DEBUG org.apache.http.wire -  << "CF-Cache-Status: HIT[\r][\n]"
14:15:34.025 [Test worker] DEBUG org.apache.http.wire -  << "Age: 1314[\r][\n]"
14:15:34.025 [Test worker] DEBUG org.apache.http.wire -  << "Report-To: {"endpoints":[{"url":"https:\/\/a.nel.cloudflare.com\/report\/v3?s=2EyTYzARUug9gQZ0Xls00B660C%2Fs82tV9oh%2BX4%2BC5q%2FCDkqZWMxbCbsFfMfHcZDs%2F%2BJLic5dKxSW%2FZRChBIwVDEzrApUvO9D6FsprckEKVH0ySfGLhVFIcMRGQ%3D%3D"}],"group":"cf-nel","max_age":604800}[\r][\n]"
14:15:34.025 [Test worker] DEBUG org.apache.http.wire -  << "NEL: {"success_fraction":0,"report_to":"cf-nel","max_age":604800}[\r][\n]"
14:15:34.025 [Test worker] DEBUG org.apache.http.wire -  << "Vary: Accept-Encoding[\r][\n]"
14:15:34.025 [Test worker] DEBUG org.apache.http.wire -  << "Server: cloudflare[\r][\n]"
14:15:34.025 [Test worker] DEBUG org.apache.http.wire -  << "CF-RAY: 7d070a0db8dd26ec-OTP[\r][\n]"
14:15:34.025 [Test worker] DEBUG org.apache.http.wire -  << "Content-Encoding: gzip[\r][\n]"
14:15:34.027 [Test worker] DEBUG org.apache.http.wire -  << "[\r][\n]"
14:15:34.027 [Test worker] DEBUG org.apache.http.impl.conn.DefaultClientConnection - Receiving response: HTTP/1.1 200 OK
14:15:34.027 [Test worker] DEBUG org.apache.http.headers - << HTTP/1.1 200 OK
14:15:34.027 [Test worker] DEBUG org.apache.http.headers - << Date: Thu, 01 Jun 2023 11:15:32 GMT
14:15:34.027 [Test worker] DEBUG org.apache.http.headers - << Content-Type: application/json; charset=utf-8
14:15:34.027 [Test worker] DEBUG org.apache.http.headers - << Transfer-Encoding: chunked
14:15:34.027 [Test worker] DEBUG org.apache.http.headers - << Connection: keep-alive
14:15:34.027 [Test worker] DEBUG org.apache.http.headers - << X-Powered-By: Express
14:15:34.027 [Test worker] DEBUG org.apache.http.headers - << Access-Control-Allow-Origin: *
14:15:34.027 [Test worker] DEBUG org.apache.http.headers - << Etag: W/"406-ut0vzoCuidvyMf8arZpMpJ6ZRDw"
14:15:34.027 [Test worker] DEBUG org.apache.http.headers - << Via: 1.1 vegur
14:15:34.027 [Test worker] DEBUG org.apache.http.headers - << Cache-Control: max-age=14400
14:15:34.027 [Test worker] DEBUG org.apache.http.headers - << CF-Cache-Status: HIT
14:15:34.027 [Test worker] DEBUG org.apache.http.headers - << Age: 1314
14:15:34.027 [Test worker] DEBUG org.apache.http.headers - << Report-To: {"endpoints":[{"url":"https:\/\/a.nel.cloudflare.com\/report\/v3?s=2EyTYzARUug9gQZ0Xls00B660C%2Fs82tV9oh%2BX4%2BC5q%2FCDkqZWMxbCbsFfMfHcZDs%2F%2BJLic5dKxSW%2FZRChBIwVDEzrApUvO9D6FsprckEKVH0ySfGLhVFIcMRGQ%3D%3D"}],"group":"cf-nel","max_age":604800}
14:15:34.027 [Test worker] DEBUG org.apache.http.headers - << NEL: {"success_fraction":0,"report_to":"cf-nel","max_age":604800}
14:15:34.027 [Test worker] DEBUG org.apache.http.headers - << Vary: Accept-Encoding
14:15:34.027 [Test worker] DEBUG org.apache.http.headers - << Server: cloudflare
14:15:34.027 [Test worker] DEBUG org.apache.http.headers - << CF-RAY: 7d070a0db8dd26ec-OTP
14:15:34.027 [Test worker] DEBUG org.apache.http.headers - << Content-Encoding: gzip
14:15:34.032 [Test worker] DEBUG org.apache.http.impl.client.DefaultHttpClient - Connection can be kept alive indefinitely
14:15:34.037 [Test worker] DEBUG io.restassured.internal.RestAssuredHttpBuilder - Parsing response as: application/json; charset=utf-8
14:15:34.038 [Test worker] DEBUG org.apache.http.wire -  << "17b[\r][\n]"
14:15:34.038 [Test worker] DEBUG org.apache.http.wire -  << "[0x1f][0x8b][0x8][0x0][0x0][0x0][0x0][0x0][0x0][0x3][0x8d][0xd2][0xcd]n[0xa3]0[0x14][0x86][0xe1][q[0xcf]l](Y[0xf4][0xc7][0xab][0xaa][0xd2][0xcc]t[0xd1]n[0xa2][0xd9]U[0xa3][0xea][0x4][0xe][0xe0][0xd6][0xd8][0xee][0xb1]i[0xa6][0x8a]r[0xef]UM4T[0x88]D[0xec][0x0][0xbf][0x1f]z[0x84][0xd8][0x81][0xc7][0x86]@[0xad]$x[0xe2][0xe7][0xe1][0xe6]RBt[0x11][\r][0xa8]bu[0xb8]L'!u[0x15]F[0x4][0xf5][0xb4][0x3]][0x81][0xba][0x92]@[0x1d]j[0x3][\n]"
14:15:34.038 [Test worker] DEBUG org.apache.http.wire -  << ":][0xb6]H&3[0xb8][\r][0xce][0xde]2[0xbd]1[0x85]L[[0x90]Pk[0xe][0xf1][0xd9]bG[0xa0][0xe0]q[0xe8]@[0x82][0xc1][0xf1][0xe9]CZ[0x81][0x4]|[0xc7][0x88][0xc][\n]"
14:15:34.038 [Test worker] DEBUG org.apache.http.wire -  << "[0xda][0x18]}Py[0xfe][0xff]E[0xb9][0xee][0x9a][0xbc][0xc6][0x92]B~u[0xae];l({[0xf1][\r][0xec][0xe5]@[0xb9][0x1e])F[0xdb]*[0xe0]GV[0x13]7[0xfd]I[0xcc][0xc3]PN0[0xbf][0xe][0xbb][0xa5][0x9c][0xeb][0x19][0xce][0xcd][0xc8][0x89]n[0xa3]1duo_[0xe9]8[0xe5]O[0xaa][0xa6][0x92][0xaf][0xcd]R[0xc6][0xcd][0xc][0xa3][0xb8][0x18][0x1d][0x9b][0xf]v6[0xab]5[0x99]*[0x1c]w[0xdc]}USF[0xda],u[0x14][0x17]s[0x90]b[0x84]4[0xe4][0xb8][0xa1][0x8c][0xaa]-[0xf2])[0xca][0xef][0xd4]M,?[0x87][0xd5]bL1[0x87]Y[0x8d][0x18][0xc6][0xb2]%[0x93][0xb5]nK[0xc6][0x1c][0xb7][0xac]S6[0xb1][0xdc][0xa7][0xd1]b[0xca][0xea];[0xe5][0xaf][0x84][0xd0]{[0xef]8[0x82][0xda]A[0xcf]fv[0xfd][0xe3][0xd0][0x9c][0xb7][0x84][0x95][0xb6][\r]H[0x88][0xf4]/[0xa6][0xff]E[0xbc][0x12]y[0xb1][0xa6][0xb7]5[0x5]Q3[0x91][0x14][0xa5][0xb3][0x91][0xf5][0xa6][0x8f][0xda][0xd9] [0xa2]K[0x9f]J[0x4][0xe2]wbQ[0xba][0x10][0x83]@&[0x81][0xde]3[0x95][0x1a]#Ug[0xb0][0xdf]]]>&#x7f;<![CDATA[[0x2][0xf6][0x16][0x88]W[0x6][0x4][0x0][0x0]"
14:15:34.038 [Test worker] DEBUG org.apache.http.wire -  << "[\r][\n]"
14:15:34.038 [Test worker] DEBUG org.apache.http.wire -  << "0[\r][\n]"
14:15:34.040 [Test worker] DEBUG org.apache.http.wire -  << "[\r][\n]"
14:15:34.040 [Test worker] DEBUG io.restassured.internal.RestAssuredHttpBuilder - Parsed data to instance of: class org.apache.http.conn.EofSensorInputStream
14:15:34.173 [Test worker] DEBUG org.apache.http.impl.conn.BasicClientConnectionManager - Releasing connection org.apache.http.impl.conn.ManagedClientConnectionImpl@239d73ff
14:15:34.173 [Test worker] DEBUG org.apache.http.impl.conn.BasicClientConnectionManager - Connection can be kept alive indefinitely
HTTP/1.1 200 OK
Date: Thu, 01 Jun 2023 11:15:32 GMT
Content-Type: application/json; charset=utf-8
Transfer-Encoding: chunked
Connection: keep-alive
X-Powered-By: Express
Access-Control-Allow-Origin: *
Etag: W/"406-ut0vzoCuidvyMf8arZpMpJ6ZRDw"
Via: 1.1 vegur
Cache-Control: max-age=14400
CF-Cache-Status: HIT
Age: 1314
Report-To: {"endpoints":[{"url":"https:\/\/a.nel.cloudflare.com\/report\/v3?s=2EyTYzARUug9gQZ0Xls00B660C%2Fs82tV9oh%2BX4%2BC5q%2FCDkqZWMxbCbsFfMfHcZDs%2F%2BJLic5dKxSW%2FZRChBIwVDEzrApUvO9D6FsprckEKVH0ySfGLhVFIcMRGQ%3D%3D"}],"group":"cf-nel","max_age":604800}
NEL: {"success_fraction":0,"report_to":"cf-nel","max_age":604800}
Vary: Accept-Encoding
Server: cloudflare
CF-RAY: 7d070a0db8dd26ec-OTP
Content-Encoding: gzip

{
    "page": 2,
    "per_page": 6,
    "total": 12,
    "total_pages": 2,
    "data": [
        {
            "id": 7,
            "email": "michael.lawson@reqres.in",
            "first_name": "Michael",
            "last_name": "Lawson",
            "avatar": "https://reqres.in/img/faces/7-image.jpg"
        },
        {
            "id": 8,
            "email": "lindsay.ferguson@reqres.in",
            "first_name": "Lindsay",
            "last_name": "Ferguson",
            "avatar": "https://reqres.in/img/faces/8-image.jpg"
        },
        {
            "id": 9,
            "email": "tobias.funke@reqres.in",
            "first_name": "Tobias",
            "last_name": "Funke",
            "avatar": "https://reqres.in/img/faces/9-image.jpg"
        },
        {
            "id": 10,
            "email": "byron.fields@reqres.in",
            "first_name": "Byron",
            "last_name": "Fields",
            "avatar": "https://reqres.in/img/faces/10-image.jpg"
        },
        {
            "id": 11,
            "email": "george.edwards@reqres.in",
            "first_name": "George",
            "last_name": "Edwards",
            "avatar": "https://reqres.in/img/faces/11-image.jpg"
        },
        {
            "id": 12,
            "email": "rachel.howell@reqres.in",
            "first_name": "Rachel",
            "last_name": "Howell",
            "avatar": "https://reqres.in/img/faces/12-image.jpg"
        }
    ],
    "support": {
        "url": "https://reqres.in/#support-heading",
        "text": "To keep ReqRes free, contributions towards server costs are appreciated!"
    }
}
14:15:34.433 [Finalizer] DEBUG org.apache.http.impl.conn.DefaultClientConnection - Connection 0.0.0.0:54484<->104.26.10.213:443 closed
]]></system-out>
  <system-err><![CDATA[]]></system-err>
</testsuite>
